%YAML 1.1
%TAG !u! tag:unity3d.com,2011:
--- !u!1 &874762873584176634
GameObject:
  m_ObjectHideFlags: 0
  m_CorrespondingSourceObject: {fileID: 0}
  m_PrefabInstance: {fileID: 0}
  m_PrefabAsset: {fileID: 0}
  serializedVersion: 6
  m_Component:
  - component: {fileID: 5082296170181933913}
  - component: {fileID: 1870559908641492490}
  m_Layer: 31
  m_Name: AnimatedMarkers
  m_TagString: Untagged
  m_Icon: {fileID: 0}
  m_NavMeshLayer: 0
  m_StaticEditorFlags: 0
  m_IsActive: 1
--- !u!4 &5082296170181933913
Transform:
  m_ObjectHideFlags: 0
  m_CorrespondingSourceObject: {fileID: 0}
  m_PrefabInstance: {fileID: 0}
  m_PrefabAsset: {fileID: 0}
  m_GameObject: {fileID: 874762873584176634}
  m_LocalRotation: {x: 0, y: 0, z: 0, w: 1}
  m_LocalPosition: {x: 0, y: 0, z: 0}
  m_LocalScale: {x: 1, y: 1, z: 1}
  m_Children:
  - {fileID: 8027494812585639544}
  m_Father: {fileID: 0}
  m_RootOrder: 0
  m_LocalEulerAnglesHint: {x: 0, y: 0, z: 0}
--- !u!156049354 &1870559908641492490
Grid:
  m_ObjectHideFlags: 0
  m_CorrespondingSourceObject: {fileID: 0}
  m_PrefabInstance: {fileID: 0}
  m_PrefabAsset: {fileID: 0}
  m_GameObject: {fileID: 874762873584176634}
  m_Enabled: 1
  m_CellSize: {x: 1, y: 1, z: 0}
  m_CellGap: {x: 0, y: 0, z: 0}
  m_CellLayout: 0
  m_CellSwizzle: 0
--- !u!1 &8997246193539289103
GameObject:
  m_ObjectHideFlags: 0
  m_CorrespondingSourceObject: {fileID: 0}
  m_PrefabInstance: {fileID: 0}
  m_PrefabAsset: {fileID: 0}
  serializedVersion: 6
  m_Component:
  - component: {fileID: 8027494812585639544}
  - component: {fileID: 4444393242543973065}
  - component: {fileID: 1975330166467109817}
  m_Layer: 0
  m_Name: Layer1
  m_TagString: Untagged
  m_Icon: {fileID: 0}
  m_NavMeshLayer: 0
  m_StaticEditorFlags: 0
  m_IsActive: 1
--- !u!4 &8027494812585639544
Transform:
  m_ObjectHideFlags: 0
  m_CorrespondingSourceObject: {fileID: 0}
  m_PrefabInstance: {fileID: 0}
  m_PrefabAsset: {fileID: 0}
  m_GameObject: {fileID: 8997246193539289103}
  m_LocalRotation: {x: -0, y: -0, z: -0, w: 1}
  m_LocalPosition: {x: 0, y: 0, z: 0}
  m_LocalScale: {x: 1, y: 1, z: 1}
  m_Children: []
  m_Father: {fileID: 5082296170181933913}
  m_RootOrder: 0
  m_LocalEulerAnglesHint: {x: 0, y: 0, z: 0}
--- !u!1839735485 &4444393242543973065
Tilemap:
  m_ObjectHideFlags: 0
  m_CorrespondingSourceObject: {fileID: 0}
  m_PrefabInstance: {fileID: 0}
  m_PrefabAsset: {fileID: 0}
  m_GameObject: {fileID: 8997246193539289103}
  m_Enabled: 1
  m_Tiles:
  - first: {x: -1, y: 0, z: 0}
    second:
      serializedVersion: 2
      m_TileIndex: 0
      m_TileSpriteIndex: 2
      m_TileMatrixIndex: 0
      m_TileColorIndex: 1
      m_TileObjectToInstantiateIndex: 65535
      dummyAlignment: 0
      m_AllTileFlags: 0
  - first: {x: -1, y: 1, z: 0}
    second:
      serializedVersion: 2
      m_TileIndex: 2
      m_TileSpriteIndex: 1
      m_TileMatrixIndex: 0
      m_TileColorIndex: 1
      m_TileObjectToInstantiateIndex: 65535
      dummyAlignment: 0
      m_AllTileFlags: 0
  - first: {x: 0, y: 1, z: 0}
    second:
      serializedVersion: 2
      m_TileIndex: 1
      m_TileSpriteIndex: 0
      m_TileMatrixIndex: 0
      m_TileColorIndex: 1
      m_TileObjectToInstantiateIndex: 65535
      dummyAlignment: 0
      m_AllTileFlags: 0
  m_AnimatedTiles:
  - first: {x: -1, y: 0, z: 0}
    second:
      m_AnimatedSprites:
      - {fileID: 21300000, guid: 25944a5691cd49241b842f33f999f1e4, type: 3}
      - {fileID: 21300000, guid: 6ea82e25e660fe34c932af0a567c901b, type: 3}
      - {fileID: 21300000, guid: 23c111dd8945e97489ccd46543d8cb1d, type: 3}
      - {fileID: 21300000, guid: 1b5f92bba81f1074eaa2154a356aa686, type: 3}
      - {fileID: 21300000, guid: 0b57f22dbe8e33f468ad08807ae8d742, type: 3}
      - {fileID: 21300000, guid: 1b5f92bba81f1074eaa2154a356aa686, type: 3}
      - {fileID: 21300000, guid: 23c111dd8945e97489ccd46543d8cb1d, type: 3}
      - {fileID: 21300000, guid: 6ea82e25e660fe34c932af0a567c901b, type: 3}
      m_AnimationSpeed: 1
      m_AnimationTimeOffset: 0
      m_IsLooping: 1
  - first: {x: -1, y: 1, z: 0}
    second:
      m_AnimatedSprites:
      - {fileID: 21300000, guid: 9d68a7815cba9d34d8a07461f117d566, type: 3}
      - {fileID: 21300000, guid: 7a133c6246f50034db0ac103a3dafc64, type: 3}
      - {fileID: 21300000, guid: f4e4cfc8d56b54145936ea4c1ec6815f, type: 3}
      - {fileID: 21300000, guid: 8c9dc09a00acb6749920b1c9f2091597, type: 3}
      - {fileID: 21300000, guid: 9b4a2112f4c5a3d43bb4312a2a428474, type: 3}
      - {fileID: 21300000, guid: 8c9dc09a00acb6749920b1c9f2091597, type: 3}
      - {fileID: 21300000, guid: f4e4cfc8d56b54145936ea4c1ec6815f, type: 3}
      - {fileID: 21300000, guid: 7a133c6246f50034db0ac103a3dafc64, type: 3}
      m_AnimationSpeed: 1
      m_AnimationTimeOffset: 0
      m_IsLooping: 1
  - first: {x: 0, y: 1, z: 0}
    second:
      m_AnimatedSprites:
      - {fileID: 21300000, guid: 539cfcb1a1cee9441ab61356f04191f5, type: 3}
      - {fileID: 21300000, guid: 098bc2a64ff0b734cb5d134d1b874a1f, type: 3}
      - {fileID: 21300000, guid: 914a6a9110335064fb2a99bcc8ee0652, type: 3}
      - {fileID: 21300000, guid: eae02c60c84756c4ca717f17cc49bc9e, type: 3}
      - {fileID: 21300000, guid: 573193d3da55dca4d9f810a2e33f6e4c, type: 3}
      - {fileID: 21300000, guid: eae02c60c84756c4ca717f17cc49bc9e, type: 3}
      - {fileID: 21300000, guid: 914a6a9110335064fb2a99bcc8ee0652, type: 3}
      - {fileID: 21300000, guid: 098bc2a64ff0b734cb5d134d1b874a1f, type: 3}
      m_AnimationSpeed: 1
      m_AnimationTimeOffset: 0
      m_IsLooping: 1
  m_TileAssetArray:
  - m_RefCount: 1
    m_Data: {fileID: 11400000, guid: 7eb561d23832249479de10f6e8a75371, type: 2}
  - m_RefCount: 1
    m_Data: {fileID: 11400000, guid: 466e2989d5429044c9fbc64709a87052, type: 2}
  - m_RefCount: 1
    m_Data: {fileID: 11400000, guid: 38d4523b6e1956f45a7340726f565faf, type: 2}
  m_TileSpriteArray:
  - m_RefCount: 1
    m_Data: {fileID: 21300000, guid: 098bc2a64ff0b734cb5d134d1b874a1f, type: 3}
  - m_RefCount: 1
    m_Data: {fileID: 21300000, guid: 7a133c6246f50034db0ac103a3dafc64, type: 3}
  - m_RefCount: 1
    m_Data: {fileID: 21300000, guid: 6ea82e25e660fe34c932af0a567c901b, type: 3}
  m_TileMatrixArray:
  - m_RefCount: 3
    m_Data:
      e00: 1
      e01: 0
      e02: 0
      e03: 0
      e10: 0
      e11: 1
      e12: 0
      e13: 0
      e20: 0
      e21: 0
      e22: 1
      e23: 0
      e30: 0
      e31: 0
      e32: 0
      e33: 1
  m_TileColorArray:
  - m_RefCount: 0
    m_Data: {r: -0.0000031854615, g: -0.0000031854615, b: -0.0000031854615, a: -0.0000031854615}
  - m_RefCount: 3
    m_Data: {r: 1, g: 1, b: 1, a: 1}
  m_TileObjectToInstantiateArray: []
  m_AnimationFrameRate: 1
  m_Color: {r: 1, g: 1, b: 1, a: 1}
  m_Origin: {x: -1, y: 0, z: 0}
  m_Size: {x: 2, y: 2, z: 1}
  m_TileAnchor: {x: 0.5, y: 0.5, z: 0}
  m_TileOrientation: 0
  m_TileOrientationMatrix:
    e00: 1
    e01: 0
    e02: 0
    e03: 0
    e10: 0
    e11: 1
    e12: 0
    e13: 0
    e20: 0
    e21: 0
    e22: 1
    e23: 0
    e30: 0
    e31: 0
    e32: 0
    e33: 1
--- !u!483693784 &1975330166467109817
TilemapRenderer:
  m_ObjectHideFlags: 0
  m_CorrespondingSourceObject: {fileID: 0}
  m_PrefabInstance: {fileID: 0}
  m_PrefabAsset: {fileID: 0}
  m_GameObject: {fileID: 8997246193539289103}
  m_Enabled: 1
  m_CastShadows: 0
  m_ReceiveShadows: 0
  m_DynamicOccludee: 0
  m_MotionVectors: 1
  m_LightProbeUsage: 0
  m_ReflectionProbeUsage: 0
  m_RayTracingMode: 0
  m_RayTraceProcedural: 0
  m_RenderingLayerMask: 1
  m_RendererPriority: 0
  m_Materials:
  - {fileID: 10754, guid: 0000000000000000f000000000000000, type: 0}
  m_StaticBatchInfo:
    firstSubMesh: 0
    subMeshCount: 0
  m_StaticBatchRoot: {fileID: 0}
  m_ProbeAnchor: {fileID: 0}
  m_LightProbeVolumeOverride: {fileID: 0}
  m_ScaleInLightmap: 1
  m_ReceiveGI: 1
  m_PreserveUVs: 0
  m_IgnoreNormalsForChartDetection: 0
  m_ImportantGI: 0
  m_StitchLightmapSeams: 1
  m_SelectedEditorRenderState: 0
  m_MinimumChartSize: 4
  m_AutoUVMaxDistance: 0.5
  m_AutoUVMaxAngle: 89
  m_LightmapParameters: {fileID: 0}
  m_SortingLayerID: 0
  m_SortingLayer: 0
  m_SortingOrder: 0
  m_ChunkSize: {x: 32, y: 32, z: 32}
  m_ChunkCullingBounds: {x: 0, y: 0, z: 0}
  m_MaxChunkCount: 16
  m_MaxFrameAge: 16
  m_SortOrder: 0
  m_Mode: 0
  m_DetectChunkCullingBounds: 0
  m_MaskInteraction: 0
--- !u!114 &7822148656109746592
MonoBehaviour:
  m_ObjectHideFlags: 0
  m_CorrespondingSourceObject: {fileID: 0}
  m_PrefabInstance: {fileID: 0}
  m_PrefabAsset: {fileID: 0}
  m_GameObject: {fileID: 0}
  m_Enabled: 1
  m_EditorHideFlags: 0
  m_Script: {fileID: 12395, guid: 0000000000000000e000000000000000, type: 0}
  m_Name: Palette Settings
  m_EditorClassIdentifier: 
  cellSizing: 0
  m_TransparencySortMode: 0
  m_TransparencySortAxis: {x: 0, y: 0, z: 1}
